…
Now we have the generalized linear model, I will use the `augment()`
function to show the fitted values of the model. These values are
numbers between 0 and 1, corresponding to the probability given by the
model that the entry belongs to `sex_group` 1 (ie the probability that
the penguin is male).

``` r
(penguins_model_results <- penguins_model %>%
  transmute(species, yhat = map(model, function(x) augment(x, type.predict = "response"))) %>%
  unnest(yhat) %>%
  select(!c('.resid', '.std.resid', '.hat', '.sigma', '.cooksd')))
```

    ## # A tibble: 333 x 7
    ##    species sex_group bill_length_mm bill_depth_mm flipper_length_~ body_mass_g
    ##    <fct>       <dbl>          <dbl>         <dbl>            <int>       <int>
    ##  1 Adelie          1           39.1          18.7              181        3750
    ##  2 Adelie          0           39.5          17.4              186        3800
    ##  3 Adelie          0           40.3          18                195        3250
    ##  4 Adelie          0           36.7          19.3              193        3450
    ##  5 Adelie          1           39.3          20.6              190        3650
    ##  6 Adelie          0           38.9          17.8              181        3625
    ##  7 Adelie          1           39.2          19.6              195        4675
    ##  8 Adelie          0           41.1          17.6              182        3200
    ##  9 Adelie          1           38.6          21.2              191        3800
    ## 10 Adelie          1           34.6          21.1              198        4400
    ## # ... with 323 more rows, and 1 more variable: .fitted <dbl>
…
I will create the `prediction_check` column, which gives 1 if the
assigment was correct, and 0 if not.

``` r
(penguins_model_accuracy <- penguins_model_results %>%
  select(species, sex_group, .fitted) %>%
  mutate(.error = abs(sex_group - .fitted)) %>%
  mutate(prediction_check = ifelse(.error > 0.5, 0, 1)))
```

    ## # A tibble: 333 x 5
    ##    species sex_group .fitted    .error prediction_check
    ##    <fct>       <dbl>   <dbl>     <dbl>            <dbl>
    ##  1 Adelie          1  0.842  0.158                    1
    ##  2 Adelie          0  0.619  0.619                    0
    ##  3 Adelie          0  0.0639 0.0639                   1
    ##  4 Adelie          0  0.0887 0.0887                   1
    ##  5 Adelie          1  0.963  0.0366                   1
    ##  6 Adelie          0  0.336  0.336                    1
    ##  7 Adelie          1  1.00   0.0000594                1
    ##  8 Adelie          0  0.0776 0.0776                   1
    ##  9 Adelie          1  0.990  0.00967                  1
    ## 10 Adelie          1  0.996  0.00368                  1
    ## # ... with 323 more rows
…
